Spaceship Titanic Investigation
…
→ A | warning: glm.fit: fitted probabilities numerically 0 or 1 occurred

There were issues with some computations   A: x1

There were issues with some computations   A: x10

Code

log_reg_cv_results %>%
  collect_metrics(summarize = FALSE)

# A tibble: 30 × 5
   id     .metric   .estimator .estimate .config             
   <chr>  <chr>     <chr>          <dbl> <chr>               
 1 Fold01 accuracy  binary         0.785 Preprocessor1_Model1
 2 Fold01 precision binary         0.797 Preprocessor1_Model1
 3 Fold01 recall    binary         0.760 Preprocessor1_Model1
 4 Fold02 accuracy  binary         0.779 Preprocessor1_Model1
 5 Fold02 precision binary         0.808 Preprocessor1_Model1
 6 Fold02 recall    binary         0.728 Preprocessor1_Model1
 7 Fold03 accuracy  binary         0.776 Preprocessor1_Model1
 8 Fold03 precision binary         0.774 Preprocessor1_Model1
 9 Fold03 recall    binary         0.774 Preprocessor1_Model1
10 Fold04 accuracy  binary         0.786 Preprocessor1_Model1
# ℹ 20 more rows
…
